PTMMA24 - Day 2 - Web Scraping
…
get_companies <- function(.progress = TRUE, .n = Inf) {
  # YOUR CODE HERE
}

Step 3: Test the Function

After writing the function, test it by retrieving a limited number of companies to ensure it works correctly. For instance, you can retrieve the details of the first 100 companies using:

tab_companies <- get_companies(.n = 100)

 ■■■■■■■■■■■                       33% |  ETA:  2s

tab_companies

# A tibble: 93 × 5
   company_id                company_name company_link industry_name sector_name
   <chr>                     <chr>        <chr>        <chr>         <chr>      
 1 aeris-environmental       Aeris Envir… https://www… "Pollution &… Industrial…
 2 scpharmaceuticals-inc     scPharmaceu… https://www… "Biotechnolo… Healthcare 
 3 us-concrete-inc           U.S. Concre… https://www… "Cement"      Industrial…
 4 1-800-flowerscom          1-800-FLOWE… https://www… "Specialty R… Services   
 5 10x-genomics-inc          10x Genomic… https://www… "Healthcare … Healthcare 
 6 111-inc                   111, Inc.    https://www… ""            Healthcare 
 7 degree                    1414 Degrees https://www… ""            Utilities  
 8 180-life-sciences-corp    180 Life Sc… https://www… "Biotechnolo… Healthcare 
 9 1847-holdings-llc         1847 Holdin… https://www… "Conglomerat… Industrial…
10 1895-bancorp-of-wisconsi… 1895 Bancor… https://www… "Financial S… Financial  
# ℹ 83 more rows
…
Save HTMLs

purrr::walk(tab_companies$company_link, ~ save_raw_htmls(.x, "day2/raw_html", ".fst"), .progress = TRUE)
# purrr::walk(tab_companies$company_link, ~ save_raw_htmls(.x, "day2/raw_html", ".html"), .progress = TRUE)

Read the log file

tab_log_companies <- readr::read_delim(
  file = "day2/raw_html/log.csv",
  delim = "|"
) %>%
  dplyr::filter(format == ".fst")
tab_log_companies

# A tibble: 93 × 8
   company_id  company_link format path  err   err_msg start_time           time
   <chr>       <chr>        <chr>  <chr> <lgl> <lgl>   <dttm>              <dbl>
 1 aeris-envi… https://www… .fst   day2… FALSE NA      2023-08-23 12:49:02 0.834
 2 scpharmace… https://www… .fst   day2… FALSE NA      2023-08-23 12:49:04 0.890
 3 us-concret… https://www… .fst   day2… FALSE NA      2023-08-23 12:49:06 0.661
 4 1-800-flow… https://www… .fst   day2… FALSE NA      2023-08-23 12:49:08 0.800
 5 10x-genomi… https://www… .fst   day2… FALSE NA      2023-08-23 12:49:10 0.748
 6 111-inc     https://www… .fst   day2… FALSE NA      2023-08-23 12:49:12 1.29 
 7 degree      https://www… .fst   day2… FALSE NA      2023-08-23 12:49:14 1.77 
 8 180-life-s… https://www… .fst   day2… FALSE NA      2023-08-23 12:49:17 1.50 
 9 1847-holdi… https://www… .fst   day2… FALSE NA      2023-08-23 12:49:19 0.999
10 1895-banco… https://www… .fst   day2… FALSE NA      2023-08-23 12:49:21 0.897
# ℹ 83 more rows
…
purrr::map: This function applies the get_company_info function to each path in tab_log_companies$path. The ~ symbol is used to define a formula where .x represents each individual path.

read_raw_html(.x): For each path, the HTML content is read and passed to the get_company_info function.

dplyr::bind_rows: After extracting the information for each company, the results are combined into a single dataframe.

tab_companies_info <- purrr::map(tab_log_companies$path, ~ get_company_info(read_raw_html(.x)), .progress = TRUE)

 ■■■■■■■■■■■■■■■■■■■■■■■■■■■■      90% |  ETA:  0s

tab_companies_info <- dplyr::bind_rows(tab_companies_info)
tab_companies_info

# A tibble: 77 × 11
   vendor_name          ticker_name exchange_name employees location description
   <chr>                <chr>       <chr>         <chr>     <chr>    <chr>      
 1 Aeris Environmental  AEI         Exchange ASX… 11-50 Em… Based i… "Aeris Env…
 2 scPharmaceuticals I… SCPH        Exchange NAS… 11-50 Em… Based i… "scPharmac…
 3 U.S. Concrete, Inc.  RMIX        Exchange NAS… 1001-500… Based i… "U.S. Conc…
 4 1-800-FLOWERS.COM    FLWS        Exchange NAS… 1001-500… Based i… "1-800-Flo…
 5 10x Genomics, Inc.   TXG         Exchange NAS… 501-1000… Based i… "10x Genom…
 6 111, Inc.            YI          Exchange NAS… 1001-500… Based i… "111, Inc.…
 7 1414 Degrees         14D         Exchange ASX… 11-50 Em… Based i… "1414 Degr…
 8 180 Life Sciences C… ATNF        Exchange NAS… 1-10 Emp… Based i… "180 Life …
 9 1847 Holdings LLC    EFSH        Exchange NYS… 1-10 Emp… Based i… "1847 Hold…
10 1895 Bancorp of Wis… BCOW        Exchange NAS… 51-200 E… Based i… "1895 Banc…
# ℹ 67 more rows
# ℹ 5 more variables: company_website <chr>, facebook <chr>, youtube <chr>,
#   linkedin <chr>, twitter <chr>

Explanation:

This is similar to the previous block but focuses on extracting the annual report links for each company.

tab_company_reports <- purrr::map(tab_log_companies$path, ~ get_company_reports(read_raw_html(.x)), .progress = TRUE)

 ■■■■■■■■■■■■■■■■                  52% |  ETA:  2s

tab_company_reports <- dplyr::bind_rows(tab_company_reports)
tab_company_reports

# A tibble: 842 × 3
   heading             year report_link                                         
   <chr>              <int> <chr>                                               
 1 2021 Annual Report  2021 https://www.annualreports.com/HostedData/AnnualRepo…
 2 2020 Annual Report  2020 https://www.annualreports.com/HostedData/AnnualRepo…
 3 2019 Annual Report  2019 https://www.annualreports.com/HostedData/AnnualRepo…
 4 2018 Annual Report  2018 https://www.annualreports.com/HostedData/AnnualRepo…
 5 2017 Annual Report  2017 https://www.annualreports.com/HostedData/AnnualRepo…
 6 2016 Annual Report  2016 https://www.annualreports.com/HostedData/AnnualRepo…
 7 2021 Annual Report  2021 https://www.annualreports.com/HostedData/AnnualRepo…
 8 2020 Annual Report  2020 https://www.annualreports.com/HostedData/AnnualRepo…
 9 2019 Annual Report  2019 https://www.annualreports.com/HostedData/AnnualRepo…
10 2018 Annual Report  2018 https://www.annualreports.com/HostedData/AnnualRepo…
# ℹ 832 more rows
…
Ask your AI assistant to parse the copied section into a dataframe in R.

Inspect the dataframe to ensure the data has been parsed correctly.

read_master_idx <- function(.path) {
  # YOUR CODE HERE
}

Warning: One or more parsing issues, call `problems()` on your data frame for details,
e.g.:
  dat <- vroom(...)
  problems(dat)

# A tibble: 356,328 × 5
   cik     company_name           form_type date_filed filename                 
   <chr>   <chr>                  <chr>     <date>     <chr>                    
 1 1000045 NICHOLAS FINANCIAL INC 10-Q      2022-02-09 edgar/data/1000045/00009…
 2 1000045 NICHOLAS FINANCIAL INC 4         2022-02-03 edgar/data/1000045/00010…
 3 1000045 NICHOLAS FINANCIAL INC 4         2022-02-03 edgar/data/1000045/00010…
 4 1000045 NICHOLAS FINANCIAL INC 4         2022-02-11 edgar/data/1000045/00013…
 5 1000045 NICHOLAS FINANCIAL INC 4         2022-02-18 edgar/data/1000045/00013…
 6 1000045 NICHOLAS FINANCIAL INC 8-K       2022-01-13 edgar/data/1000045/00009…
 7 1000045 NICHOLAS FINANCIAL INC 8-K       2022-01-31 edgar/data/1000045/00009…
 8 1000045 NICHOLAS FINANCIAL INC SC 13G/A  2022-02-09 edgar/data/1000045/00011…
 9 1000045 NICHOLAS FINANCIAL INC SC 13G    2022-02-08 edgar/data/1000045/00003…
10 1000045 NICHOLAS FINANCIAL INC SC 13G    2022-02-11 edgar/data/1000045/00010…
# ℹ 356,318 more rows
…
